<svg xmlns="http://www.w3.org/2000/svg" width="314" height="180" viewBox="0 0 314 180">
  <metadata><?xpacket begin="﻿" id="W5M0MpCehiHzreSzNTczkc9d"?>
<x:xmpmeta xmlns:x="adobe:ns:meta/" x:xmptk="Adobe XMP Core 5.6-c140 79.160451, 2017/05/06-01:08:21        ">
   <rdf:RDF xmlns:rdf="http://www.w3.org/1999/02/22-rdf-syntax-ns#">
      <rdf:Description rdf:about=""/>
   </rdf:RDF>
</x:xmpmeta>
                                                                                                    
                                                                                                    
                                                                                                    
                                                                                                    
                                                                                                    
                                                                                                    
                                                                                                    
                                                                                                    
                                                                                                    
                                                                                                    
                                                                                                    
                                                                                                    
                                                                                                    
                                                                                                    
                                                                                                    
                                                                                                    
                                                                                                    
                                                                                                    
                                                                                                    
                                                                                                    
                           
<?xpacket end="w"?></metadata>
<defs>
    <style>
      .cls-1 {
        fill: #fff;
        fill-rule: evenodd;
      }
    </style>
  </defs>
  <path id="シェイプ_812" data-name="シェイプ 812" class="cls-1" d="M591.786,6236.27v-85.12h10.467v75.94H622v9.18H591.786Zm-9.434,59.79v34.56H571.831v-34.68l-17.712-50.2H566.49l10.806,33.97,11.793-33.97h11.916ZM571.1,6214.32H552.226l-4.8,21.95H538.5l17.912-85.12h12.209l17.689,85.12h-11.4Zm-8.345-48.09-8.638,39.47H569.6Zm-42.046,40.78-0.054-2.14-0.192-1.84-0.362-1.53-0.571-1.22-0.825-.95-1.125-.67-1.457-.4-1.819-.13h-9.5v38.14H494.485v-85.12h24.071a11.512,11.512,0,0,1,13.4,11.44v20.23l-0.339,2.03-0.563,1.89-0.763,1.73-0.948,1.54-1.118,1.32-1.271,1.06-1.4.78-1.526.46,1.526,0.82,1.457,1.09,1.341,1.31,1.194,1.5,1,1.64,0.763,1.75,0.485,1.83,0.17,1.86v30.84H520.706v-29.26Zm0-39.6-0.061-1.53-0.224-1.39-0.416-1.25-0.655-1.08-0.956-.88-1.279-.65-1.657-.42-2.081-.14H504.8v29.59h8.579l1.849-.12,1.55-.32,1.271-.56,1-.78,0.755-.99,0.516-1.23,0.293-1.45,0.1-1.67v-15.13Zm-17.018,78.33v67.06a16.061,16.061,0,0,1-19.4,17.82l-1.8-.01-1.919-.07-1.981-.18-2.012-.37-2-.59-1.958-.89-1.872-1.24L469,6325.62l-0.956-1.19-0.8-1.3-0.663-1.38-0.531-1.48-0.4-1.57-0.293-1.66-0.185-1.76-0.077-1.85v-67.69h10.667v66.97l0.162,2.45,0.455,2.1L477.1,6319l0.979,1.41,1.218,1.07,1.4,0.75,1.6,0.45,1.757,0.14,2.451-.16,1.981-.49,1.557-.78,1.179-1.09,0.833-1.37,0.547-1.65,0.293-1.91,0.085-2.17v-67.46h10.7Zm-38.515-9.47h-1.788l-1.9-.05-1.981-.16-2.012-.33-2-.56-1.965-.87-1.873-1.21-1.757-1.63-0.948-1.21-0.794-1.3-0.663-1.39-0.524-1.47-0.4-1.58-0.293-1.66-0.193-1.75-0.092-1.84v-68.11h10.7v67.4l0.147,2.46,0.462,2.08,0.724,1.73,0.979,1.41,1.21,1.06,1.419,0.76,1.6,0.44,1.78,0.15,2.436-.17,1.981-.47,1.549-.79,1.172-1.08,0.84-1.38,0.539-1.63,0.293-1.93,0.093-2.16v-67.88H484.6v67.48A15.959,15.959,0,0,1,465.173,6236.27Zm-14.591,94.35-3.789-21.73H427.839l-4.773,21.73H411.99l20.186-84.88h12.117l17.681,84.88H450.582ZM438.4,6260.79l-8.666,39.45h15.547Zm-13.927-24.52H413.948v-75.62H398.787v-9.5h40.874v9.5H424.477v75.62Zm-33.089,0-3.812-21.95H368.683l-4.812,21.95H352.834l20.148-85.12h12.132l17.673,85.12h-11.4Zm-12.163-70.04-8.651,39.47h15.5Zm-61.415-1.17v71.21H308v-85.12H323.19L339.03,6211v-59.85h9.9v85.12H335.815Zm35.286,80.81,3.977,0.46,3.253,0.81,2.567,1.23,1.911,1.72,1.318,2.23,0.755,2.82,0.247,3.47v15l-0.347,3.59-0.917,2.82-1.28,2.14-1.479,1.55-1.48,1.05-1.28.64-0.909.31-0.347.1,0.347,0.08,0.909,0.33,1.28,0.7,1.48,1.16,1.479,1.73,1.28,2.4,0.917,3.19,0.347,4.1v16.88l-0.069,2.12-0.332,2.32-0.786,2.37-1.441,2.28-2.274,2.03-3.33,1.64-4.555,1.09-5.989.39h-18.49v-84.88h18.49Zm-13.165,75.38h8.417l1.673-.1,1.472-.3,1.249-.51,1.025-.71,0.809-.93,0.586-1.16,0.354-1.4,0.116-1.64v-16.13l-0.069-1.49-0.239-1.46-0.44-1.39-0.678-1.26-0.956-1.07-1.271-.83-1.619-.53-2.012-.19h-8.417v31.1Zm0-39.95h8.417l2-.17,1.611-.47,1.28-.74,0.956-.95,0.678-1.11,0.447-1.23,0.239-1.32,0.077-1.33v-13.52l-0.085-.97-0.262-1.04-0.462-1.05-0.71-1.01-0.971-.89-1.264-.72-1.588-.47-1.942-.17h-8.417v27.16Zm66.155-26.91H386.139v27.81h19.947v8.9H386.139v30.29h19.947v9.23H375.872v-84.88h30.214v8.65Zm144.819,0.81H535.713v75.42h-10.5V6255.2H510.008v-9.46h40.9v9.46Z" transform="translate(-308 -6151)"/>
</svg>
